isin,tipo_titulo,industria,industria_relacao,anomes
BRSTNCNTF1Q6,NOTAS DO TESOURO NACIONAL - SERIE F,titulo_pulico_selic,1,202005
BRSTNCLTN7T9,LETRAS DO TESOURO NACIONAL,titulo_pulico_selic,1,202005
BRSTNCLTN7R3,LETRAS DO TESOURO NACIONAL,titulo_pulico_selic,1,202005
BRSTNCNTC0M0,NOTAS DO TESOURO NACIONAL SERIE C,titulo_pulico_selic,1,202005
BRSTNCNTC0K4,NOTAS DO TESOURO NACIONAL SERIE C,titulo_pulico_selic,1,202005
BRSTNCNTA015,NOTAS DO TESOURO NACIONAL SERIE A3,titulo_pulico_selic,1,202005
BRSTNCNTF1U8,NOTAS DO TESOURO NACIONAL - SERIE F,titulo_pulico_selic,1,202005
BRSTNCNTB3E2,NOTAS DO TESOURO NACIONAL SERIE B,titulo_pulico_selic,1,202005
BRSTNCNTB0K5,NOTAS DO TESOURO NACIONAL SERIE B,titulo_pulico_selic,1,202005
BRSTNCNI18O3,NOTAS DO TESOURO NACIONAL SERIE I,titulo_pulico_selic,1,202005
BRSTNCNI18M7,NOTAS DO TESOURO NACIONAL SERIE I,titulo_pulico_selic,1,202005
BRSTNCNI18K1,NOTAS DO TESOURO NACIONAL SERIE I,titulo_pulico_selic,1,202005
BRSTNCNI18I5,NOTAS DO TESOURO NACIONAL SERIE I,titulo_pulico_selic,1,202005
