isin,tipo_titulo,industria,industria_relacao,anomes
BRSTNCNI18T2,NOTAS DO TESOURO NACIONAL SERIE I,titulo_pulico_selic,1,202005
BRSTNCNI17C0,NOTAS DO TESOURO NACIONAL SERIE I,titulo_pulico_selic,1,202005
BRSTNCNI18J3,NOTAS DO TESOURO NACIONAL SERIE I,titulo_pulico_selic,1,202005
BRSTNCNI18U0,NOTAS DO TESOURO NACIONAL SERIE I,titulo_pulico_selic,1,202005
BRSTNCNI17D8,NOTAS DO TESOURO NACIONAL SERIE I,titulo_pulico_selic,1,202005
BRSTNCNI1852,NOTAS DO TESOURO NACIONAL SERIE I,titulo_pulico_selic,1,202005
BRSTNCNI16P4,NOTAS DO TESOURO NACIONAL SERIE I,titulo_pulico_selic,1,202005
BRSTNCNI18L9,NOTAS DO TESOURO NACIONAL SERIE I,titulo_pulico_selic,1,202005
BRSTNCNI1621,NOTAS DO TESOURO NACIONAL SERIE I,titulo_pulico_selic,1,202005
BRSTNCNI1845,NOTAS DO TESOURO NACIONAL SERIE I,titulo_pulico_selic,1,202005
BRSTNCNTB2U0,NOTAS DO TESOURO NACIONAL SERIE B,titulo_pulico_selic,1,202005
BRSTNCNTB3V6,NOTAS DO TESOURO NACIONAL SERIE B,titulo_pulico_selic,1,202005
